{
  "sites": [
    
    {
      "key": "腾讯",
      "name": "腾讯",
      "type": 0,
      "api": "http://zy.yilans.net:8090/api.php/provide/vod/from/qq/at/xml",
      "searchable": 1,
      "quickSearch": 1,
      "filterable": 1
    },
{
      "key": "芒果",
      "name": "芒果",
      "type": 0,
      "api": "http://zy.yilans.net:8090/api.php/provide/vod/from/mgtv/at/xml",
      "searchable": 1,
      "quickSearch": 1,
      "filterable": 1
    },
    {
      "key": "搜狐",
      "name": "搜狐",
      "type": 0,
      "api": "http://zy.yilans.net:8090/api.php/provide/vod/from/sohu/at/xml",
      "searchable": 1,
      "quickSearch": 1,
      "filterable": 1
    },
    {
      "key": "奇艺",
      "name": "奇艺",
      "type": 0,
      "api": "http://zy.yilans.net:8090/api.php/provide/vod/from/qiyi/at/xml",
      "searchable": 1,
      "quickSearch": 1,
      "filterable": 1
    },
    {
      "key": "优酷",
      "name": "优酷",
      "type": 0,
      "api": "http://zy.yilans.net:8090/api.php/provide/vod/from/youku/at/xml",
      "searchable": 1,
      "quickSearch": 1,
      "filterable": 1
    },
    { 
"key": "江湖资源",
 
"name": "江湖资源",
"type": 1,
"api": "http://jhzy.jhdyw.vip:8091/api.php/provide/vod",

"playUrl": "",

"searchable": 1,

"quickSearch": 1,
"filterable": 0,

"categories": [

"国产",

"港台",
 
"日韩",
 
"欧美",
 
"综艺",
 
"动漫",
 
"动作",
  
"喜剧",
 
"爱情",
 
"科幻",
 
"恐怖",
 
"剧情",
"战争" 
]
 
 },
 
{ 
"key": "聆风影视",
"name": "聆风影视",

"type": 1,

"api": "http://maccms.bwcxvip.top/api.php/provide/vod",
 
 "playUrl": "",

"searchable": 1,
"quickSearch": 1,
"filterable": 0,

"categories": [

"国产剧",
 
 "港台剧",
"日韩剧",
 
"欧美剧",
 
"综艺",
 
"动漫",
 
"动作片",

"喜剧片",
 
"爱情片",

"科幻片",

"恐怖片",

"剧情片",

"战争片" 
]

},

 {
"key": "雪人官采",
 
 "name": "雪人官采",

"type": 1,
 
"api": "https://zl.qd234.cn/api.php/provide/vod/",

"playUrl": "",

"searchable": 1,
"quickSearch": 1,

"filterable": 0,

"categories": [

"国产剧",
"日韩剧",
"港台剧",
"欧美剧",

"综艺",

"动漫",
"动作片",
"科幻片",

"喜剧片",

"爱情片",

"恐怖片",

"剧情片"
 
]

},

{
"key": "木偶人",
 
"name": "木偶人",

"type": 1,

"api": "http://vip.muoutv.com/api.php/provide/vod/",

"playUrl": "",

"searchable": 1,

"quickSearch": 1,

"filterable": 0,
"categories": [
 
"国产剧",
"日韩剧",
 "港台剧",

 "欧美剧",
"综艺",
"动漫",

"动作片",

"科幻片",
"喜剧片",

"爱情片",

"恐怖片",

"剧情片"

 ]
},
{ 
 "key": "西门影视",

"name": "西门影视",

"type": 1,
 
"api": "https://ximenys.com/api.php/provide/vod/",
"playUrl": "",
 "searchable": 1,
"quickSearch": 1,
"filterable": 0,

"categories": [

 "国产剧",

"日韩剧",

 "港台剧",
"欧美剧",

"综艺",
 
"动漫",

"动作片",
"科幻片",
"喜剧片",

"爱情片",
 
"恐怖片",
"剧情片"

]

 },
 {
      "key": "18禁.84鲨鱼",
      "name": "18禁.84鲨鱼",
      "type": 0,
      "api": "https://shayuapi.com/api.php/provide/vod/at/xml/",
      "playUrl": ""
    }, 
    {

      "key": "18禁.78乐播",
      "name": "18禁.78乐播",
	  "type":0,
      "api": "https://lbapi9.com/api.php/provide/vod/at/xml/",
      "playUrl": ""
    },
    {
      "key": "18禁.芒果资源",
      "type":0,
      "name": "18禁.芒果资源",
      "api": "https://www.mgav1.cc/api.php/provide/vod/at/xml/",
      "playUrl": ""


    },
    {
      "key": "18禁.77资源",
      "type":0,
      "name": "18禁.77资源",
      "api": "https://www.77zy.vip/inc/m3u8.php",
      "playUrl": ""
    },
    {"key":"18禁.字幕网","name":"18禁.字幕网","type":0,"api":"http://zmcj88.com/sapi?ac=videolist","playUrl":"","categories":[],"quickSearch":0},
{"key":"18禁.姐资源","name":"18禁.姐资源","type":0,"api":"https://86xjj.com/home/cjapi/70efdf2ec9b086079795c442636b55fb/vod/xml","playUrl":"","categories":[],"quickSearch":0},
{"key":"18禁.佳丽资源","name":"18禁.佳丽资源","type":0,"api":"https://api.jializyzapi.com/inc/api.php","playUrl":"","categories":[],"quickSearch":0},
{"key":"18禁.猫资源","name":"18禁.猫资源","type":0,"api":"https://api.maozyapi.com/inc/api.php","playUrl":"","categories":[],"quickSearch":0},
{"key":"18禁.桃资源","name":"18禁.桃资源","type":1,"api":"https://api.taoseapi.com/api.php/provide/vod/","playUrl":"","categories":[],"quickSearch":0},
{"key":"18禁.秀资源","name":"18禁.秀资源","type":1,"api":"https://api.xiuseapi.com/api.php/provide/vod/","playUrl":"","categories":[],"quickSearch":0},
{"key":"18禁.花椒资源","name":"18禁.花椒资源","type":1,"api":"https://apihjzy.com/api.php/provide/vod/","playUrl":"","categories":[],"quickSearch":0},
{"key":"18禁.探探资源","name":"18禁.探探资源","type":1,"api":"https://apittzy.com/api.php/provide/vod/","playUrl":"","categories":[],"quickSearch":0},
{"key":"18禁.523资源","name":"18禁.523资源","type":0,"api":"https://caiji.523zyw.com/inc/api.php","playUrl":"","categories":[],"quickSearch":0},
{"key":"18禁.CK资源(VPN)","name":"18禁.CK资源(VPN)","type":1,"api":"https://ckzy.me/api.php/provide/vod/","playUrl":"","categories":[],"quickSearch":0},
{"key":"18禁.地资源","name":"18禁.地资源","type":0,"api":"https://dadiapi.com/api.php","playUrl":"","categories":[],"quickSearch":0},
{"key":"18禁.芒果资源","name":"18禁.芒果资源","type":1,"api":"https://mgzyz1.com/api.php/provide/vod/","playUrl":"","categories":[],"quickSearch":0},
{"key":"18禁.鲨鱼资源","name":"18禁.鲨鱼资源","type":1,"api":"https://shayuapi.com/api.php/provide/vod/","playUrl":"","categories":[],"quickSearch":0},
{"key":"18禁.袜资源","name":"18禁.袜资源","type":1,"api":"https://siwazyw.net/api.php/provide/vod/","playUrl":"","categories":[],"quickSearch":0},
{"key":"18禁.1024资源","name":"18禁.1024资源","type":0,"api":"https://www.1024nf.com/api.php/provide/vod/at/xml/","playUrl":"","categories":[],"quickSearch":0},
{"key":"18禁.4000资源","name":"18禁.4000资源","type":0,"api":"https://www.4000zy.com/inc/api.php","playUrl":"","categories":[],"quickSearch":0},
		
    {
      "key": "rrm_spider",
      "name": "人人迷(免解)",
      "type": 3,
      "api": "csp_Rrm",
      "searchable": 1,
      "quickSearch": 1,
      "filterable": 0,
      "ext": "B9C8093A210EADA1"
    },
    {
      "key": "2345_spider",
      "name": "2345影视(官源)",
      "type": 3,
      "api": "csp_YS2345",
      "searchable": 1,
      "quickSearch": 1,
      "filterable": 1,
      "ext": "https://litecucumber.coding.net/p/cat/d/config/git/raw/master/pub/ext/2345.json"
    },
    {
      "key": "nfzjm_spider",
      "name": "南府追剧(AT)",
      "type": 3,
      "api": "csp_Nfzjm",
      "searchable": 1,
      "quickSearch": 1,
      "filterable": 1
    },
    {
      "key": "ysgc_spider",
      "name": "影视工厂(V0)",
      "type": 3,
      "api": "csp_Ysgc",
      "searchable": 1,
      "quickSearch": 1,
      "filterable": 1
    },
    {
      "key": "zjdr_spider",
      "name": "追剧达人(V0)",
      "type": 3,
      "api": "csp_Zjdr",
      "searchable": 1,
      "quickSearch": 1,
      "filterable": 1
    },
    {
      "key": "auete_spider",
      "name": "Auete影视(SP)",
      "type": 3,
      "api": "csp_Auete",
      "searchable": 1,
      "quickSearch": 1,
      "filterable": 1,
      "ext": "https://litecucumber.coding.net/p/cat/d/config/git/raw/master/pub/ext/auete.json"
    },
    {
      "key": "n0ys_spider",
      "name": "90影视(SP)",
      "type": 3,
      "api": "csp_N0ys",
      "searchable": 1,
      "quickSearch": 1,
      "filterable": 0,
      "ext": "https://litecucumber.coding.net/p/cat/d/config/git/raw/master/pub/ext/90ys.json"
    },
    {
      "key": "cokemv_spider",
      "name": "Cokemv(SP)",
      "type": 3,
      "api": "csp_Cokemv",
      "searchable": 1,
      "quickSearch": 1,
      "filterable": 1,
      "ext": "https://litecucumber.coding.net/p/cat/d/config/git/raw/master/pub/ext/cokemv.json"
    },
    {
      "key": "adys_spider",
      "name": "爱迪影视(SP)",
      "type": 3,
      "api": "csp_Aidi",
      "searchable": 1,
      "quickSearch": 1,
      "filterable": 1,
      "ext": "https://litecucumber.coding.net/p/cat/d/config/git/raw/master/pub/ext/aidi.json"
    },
    {
      "key": "enlienli_spider",
      "name": "嗯哩嗯哩(SP)",
      "type": 3,
      "api": "csp_Enlienli",
      "searchable": 1,
      "quickSearch": 1,
      "filterable": 1
    },
    {
      "key": "jpys_spider",
      "name": "极品影视(SP)",
      "type": 3,
      "api": "csp_Jpys",
      "searchable": 1,
      "quickSearch": 1,
      "filterable": 1,
      "ext": "https://litecucumber.coding.net/p/cat/d/config/git/raw/master/pub/ext/jipin.json"
    },
    {
      "key": "buka_spider",
      "name": "真不卡(SP)",
      "type": 3,
      "api": "csp_Buka",
      "searchable": 0,
      "quickSearch": 0,
      "filterable": 1,
      "ext": "https://litecucumber.coding.net/p/cat/d/config/git/raw/master/pub/ext/buka.json"
    },
    {
      "key": "9ekk_spider",
      "name": "9亿看看(SP)",
      "type": 3,
      "api": "csp_Nekk",
      "searchable": 1,
      "quickSearch": 1,
      "filterable": 1,
      "ext": "https://litecucumber.coding.net/p/cat/d/config/git/raw/master/pub/ext/9ekk.json"
    },
    {
      "key": "csp_YydsAli1",
      "name": "YYDS阿里(SP)",
      "type": 3,
      "api": "csp_YydsAli1",
      "searchable": 1,
      "quickSearch": 0,
      "filterable": 0
    },
    {
      "key": "csp_xpath_cjt",
      "name": "CJT影视(XP)",
      "type": 3,
      "api": "csp_XPathMac",
      "searchable": 1,
      "quickSearch": 1,
      "filterable": 0,
      "ext": "https://litecucumber.coding.net/p/cat/d/config/git/raw/master/pub/xpath/cjtys.json"
    },
    {
      "key": "csp_xpath_saohuotv",
      "name": "骚火电影(XP)",
      "type": 3,
      "api": "csp_XPath",
      "searchable": 1,
      "quickSearch": 1,
      "filterable": 0,
      "ext": "https://litecucumber.coding.net/p/cat/d/config/git/raw/master/pub/xpath/saohuotv2.json"
    },
    {
      "key": "csp_xpath_subb",
      "name": "素白白影视(XP)",
      "type": 3,
      "api": "csp_XPathSubb",
      "searchable": 1,
      "quickSearch": 1,
      "filterable": 0,
      "ext": "https://litecucumber.coding.net/p/cat/d/config/git/raw/master/pub/xpath/subaibai.json"
    },
    {
      "key": "csp_xpath_dm84",
      "name": "动漫巴士(XP)",
      "type": 3,
      "api": "csp_XPath",
      "searchable": 1,
      "quickSearch": 1,
      "filterable": 0,
      "ext": "https://litecucumber.coding.net/p/cat/d/config/git/raw/master/pub/xpath/dm84.json"
    },
    {
      "key": "csp_xpath_age",
      "name": "AGE动漫(XP)",
      "type": 3,
      "api": "csp_XPath",
      "searchable": 1,
      "quickSearch": 1,
      "filterable": 0,
      "ext": "https://litecucumber.coding.net/p/cat/d/config/git/raw/master/pub/xpath/agefans.json"
    }
  ],
  "lives": [
    {
      "group": "NewTV",
      "channels": [
        {
          "name": "NewTV爱情喜剧",
          "urls": ["http://183.207.248.71:80/cntv/live1/n-aiqingxj/n-aiqingxj"]
        },
        {
          "name": "NewTV潮妈辣婆",
          "urls": ["http://183.207.248.71:80/cntv/live1/n-cmlapo/n-cmlapo"]
        },
        {
          "name": "NewTV动作电影",
          "urls": [
            "http://183.207.248.71:80/cntv/live1/n-dongzuody/n-dongzuody"
          ]
        },
        {
          "name": "NewTV古装剧场",
          "urls": [
            "http://183.207.248.71:80/cntv/live1/n-guzhuangjc/n-guzhuangjc"
          ]
        },
        {
          "name": "NewTV黑莓电竞之夜",
          "urls": ["http://183.207.248.71:80/cntv/live1/wmyx/wmyx"]
        },
        {
          "name": "NewTV黑莓电影",
          "urls": [
            "http://183.207.248.71:80/cntv/live1/HD-8000k-1080P-Supermovie/HD-8000k-1080P-Supermovie"
          ]
        },
        {
          "name": "NewTV黑莓动画",
          "urls": ["http://183.207.248.71:80/cntv/live1/donghuawg/donghuawg"]
        },
        {
          "name": "NewTV家庭剧场",
          "urls": [
            "http://183.207.248.71:80/cntv/live1/n-jiatingjc/n-jiatingjc"
          ]
        },
        {
          "name": "NewTV金牌综艺",
          "urls": ["http://183.207.248.71:80/cntv/live1/n-saishijx/n-saishijx"]
        },
        {
          "name": "NewTV精品大剧",
          "urls": ["http://183.207.248.71:80/cntv/live1/n-jdaju/n-jdaju"]
        },
        {
          "name": "NewTV精品体育",
          "urls": ["http://183.207.248.71:80/cntv/live1/n-jtiyu/n-jtiyu"]
        },
        {
          "name": "NewTV精品综合",
          "urls": [
            "http://183.207.248.71:80/cntv/live1/n-mingxingdp/n-mingxingdp"
          ]
        },
        {
          "name": "NewTV军旅剧场",
          "urls": ["http://183.207.248.71:80/cntv/live1/n-junlvjc/n-junlvjc"]
        },
        {
          "name": "NewTV军事评论",
          "urls": ["http://183.207.248.71:80/cntv/live1/n-junshipl/n-junshipl"]
        },
        {
          "name": "NewTV农业致富",
          "urls": ["http://183.207.248.71:80/cntv/live1/n-nongyezf/n-nongyezf"]
        },
        {
          "name": "NewTV热播精选",
          "urls": ["http://183.207.248.71:80/cntv/live1/n-xiqumd/n-xiqumd"]
        },
        {
          "name": "NewTV中国功夫",
          "urls": ["http://183.207.248.71:80/cntv/live1/n-gzkongfu/n-gzkongfu"]
        }
      ]
    }
  ],
  "parses": [
    {
      "name": "Json并发",
      "type": 2,
      "url": "Parallel"
    },
    {
      "name": "Json轮询",
      "type": 2,
      "url": "Sequence"
    },
    {
      "name": "灵狐影视",
      "type": 1,
      "url": "https://api.parwix.com:4433/analysis/json/?uid=84&my=gijkmnouvxyFHPYZ28&url=",
      "t": 291,
      "i": "check at 2021-12-01 20:05:12"
    },
    {
      "name": "筋斗云",
      "type": 1,
      "url": "https://vip.byteamone.cn/api/?key=6QbQClrF1qGZTK2W4w&url=",
      "t": 351,
      "i": "check at 2021-12-01 20:04:23"
    },
    {
      "name": "宅男影院",
      "type": 1,
      "url": "http://vip.mengx.vip/home/api?type=ys&uid=1496242&key=cdhiCDFHPQRVZ02567&url=",
      "t": 382,
      "i": "check at 2021-12-01 20:04:09"
    },
    {
      "name": "小极影视",
      "type": 1,
      "url": "https://vip.byteamone.cn/api/?key=NGLfebFUsaoGOr3gaB&url=",
      "t": 390,
      "i": "check at 2021-12-01 20:05:31"
    },
    {
      "name": "5060影院",
      "type": 1,
      "url": "https://vip.mengx.vip/home/api?type=ys&uid=18613&key=bknprsxCILRTUVYZ79&url=",
      "t": 401,
      "i": "check at 2021-12-01 20:06:18"
    },
    {
      "name": "Vip影院1",
      "type": 1,
      "url": "https://api.zakkpa.com:8888/analysis/json/?uid=39&my=bdfinvyBCDEJKUY089&url=",
      "t": 404,
      "i": "check at 2021-12-01 20:04:42"
    },
    {
      "name": "公主影视1",
      "type": 1,
      "url": "https://svip.iepig.com:4443/api/?key=wnN3wqJV1rRGyIsZWu&url=",
      "t": 422,
      "i": "check at 2021-12-01 20:06:28"
    },
    {
      "name": "快云影音1",
      "type": 1,
      "url": "https://jhjx.ptygx.com/tyjx.php?url=",
      "t": 431,
      "i": "check at 2021-12-01 20:06:18"
    },
    {
      "name": "飞英视频",
      "type": 1,
      "url": "https://api.phoves.com.cn/viphd2/api/api_fytt123.php?url=",
      "t": 487,
      "i": "check at 2021-12-01 20:04:12"
    },
    {
      "name": "公主影视",
      "type": 1,
      "url": "http://jno.mshemvg.cn/?url=",
      "t": 537,
      "i": "check at 2021-12-01 20:06:28"
    },
    {
      "name": "段友影视",
      "type": 1,
      "url": "https://v.jhdyw.vip/nhdz666/?url=",
      "t": 542,
      "i": "check at 2021-12-01 20:04:11"
    },
    {
      "name": "艾特影视",
      "type": 1,
      "url": "http://kelejiexi.aitee.cc/api/?key=iHgD3TCVJpIrJ38LT6&url=",
      "t": 603,
      "i": "check at 2021-12-01 20:05:47"
    },
    {
      "name": "久久追剧1",
      "type": 1,
      "url": "https://svip.iepig.com:4443/api/?key=92d8VIpcEzzUjoX7MS&url=",
      "t": 609,
      "i": "check at 2021-12-01 20:05:18"
    },
    {
      "name": "筋斗云1",
      "type": 1,
      "url": "https://api.m3u8.tv:5678/home/api?type=ys&uid=1494542&key=ijmqvwxABEHILMOT48&url=",
      "t": 628,
      "i": "check at 2021-12-01 20:04:23"
    },
    {
      "name": "小蜻蜓1",
      "type": 1,
      "url": "https://vip.parwix.com:4433/analysis/json/?uid=2206&my=hmqwABCHILMNTV5678&url=",
      "t": 629,
      "i": "check at 2021-12-01 20:05:22"
    },
    {
      "name": "影阅阁2",
      "type": 1,
      "url": "https://api.m3u8.tv:5678/home/api?type=ys&uid=594615&key=bcehpqtxCEGKMT0248&url=",
      "t": 632,
      "i": "check at 2021-12-01 20:04:35"
    },
    {
      "name": "喵乐影视",
      "type": 1,
      "url": "https://api.shengqiankuaitao.cn/api/?key=yU21osyRGGj7U1GmR1&url=",
      "t": 658,
      "i": "check at 2021-12-01 20:04:31"
    },
    {
      "name": "蓝光视频",
      "type": 1,
      "url": "https://api.m3u8.tv:5678/home/api?type=ys&uid=1931000&key=gktuvyzABEORSYZ135&url=",
      "t": 688,
      "i": "check at 2021-12-01 20:04:16"
    },
    {
      "name": "星影相随1",
      "type": 1,
      "url": "https://xt.gbxy.net.cn/api/?key=7gAmfK5typSVsg2Qnr&url=",
      "t": 807,
      "i": "check at 2021-12-01 20:04:11"
    },
    {
      "name": "快云影音",
      "type": 1,
      "url": "http://vip.mengx.vip/home/api?type=ys&uid=2494472&key=deglpquwxzDNQRV378&url=",
      "t": 835,
      "i": "check at 2021-12-01 20:06:16"
    },
    {
      "name": "琳琅影视",
      "type": 1,
      "url": "http://jx.astv.vip/home/api?type=ys&uid=773933&key=ilmnwyBDHKRUVW3469&url=",
      "t": 886,
      "i": "check at 2021-12-01 20:06:17"
    },
    {
      "name": "筋斗云2",
      "type": 1,
      "url": "https://fast.rongxingvr.cn:8866/api/?key=nrR7koAyq9ajKId4nC&url=",
      "t": 895,
      "i": "check at 2021-12-01 20:04:25"
    },
    {
      "name": "小蜻蜓",
      "type": 1,
      "url": "http://vip.mengx.vip/home/api?type=ys&uid=2117076&key=abghklvyDEIJLNT025&url=",
      "t": 908,
      "i": "check at 2021-12-01 20:05:19"
    },
    {
      "name": "CJT影院",
      "type": 1,
      "url": "https://api.jiexi.one/api/?key=Sv5qJ05C6Oy62kCnEc&url=",
      "t": 912,
      "i": "check at 2021-12-01 20:04:51"
    },
    {
      "name": "段友影视2",
      "type": 1,
      "url": "https://fast.rongxingvr.cn:8866/api/?key=dmpu1PlocukUuN6bSt&url=",
      "t": 915,
      "i": "check at 2021-12-01 20:04:09"
    },
    {
      "name": "宅男影院1",
      "type": 1,
      "url": "https://vip.rongxingvr.cn/api/?key=TjbT8ogE0sBCt8YA1U&url=",
      "t": 953,
      "i": "check at 2021-12-01 20:04:11"
    },
    {
      "name": "看剧吧",
      "type": 1,
      "url": "https://vip.mengx.vip/home/api?type=ys&uid=1646534&key=dhijluzBDNTUZ03678&url=",
      "t": 988,
      "i": "check at 2021-12-01 20:06:21"
    }
  ],
  "flags": [
    "youku",
    "qq",
    "iqiyi",
    "qiyi",
    "letv",
    "sohu",
    "tudou",
    "pptv",
    "mgtv",
    "wasu",
    "bilibili"
  ],
  "ijk": [
    {
      "group": "软解码",
      "options": [
        {
          "category": 4,
          "name": "opensles",
          "value": "0"
        },
        {
          "category": 4,
          "name": "overlay-format",
          "value": "842225234"
        },
        {
          "category": 4,
          "name": "framedrop",
          "value": "1"
        },
        {
          "category": 4,
          "name": "soundtouch",
          "value": "1"
        },
        {
          "category": 4,
          "name": "start-on-prepared",
          "value": "1"
        },
        {
          "category": 1,
          "name": "http-detect-range-support",
          "value": "0"
        },
        {
          "category": 1,
          "name": "fflags",
          "value": "fastseek"
        },
        {
          "category": 2,
          "name": "skip_loop_filter",
          "value": "48"
        },
        {
          "category": 4,
          "name": "reconnect",
          "value": "1"
        },
        {
          "category": 4,
          "name": "max-buffer-size",
          "value": "5242880"
        },
        {
          "category": 4,
          "name": "enable-accurate-seek",
          "value": "0"
        },
        {
          "category": 4,
          "name": "mediacodec",
          "value": "0"
        },
        {
          "category": 4,
          "name": "mediacodec-auto-rotate",
          "value": "0"
        },
        {
          "category": 4,
          "name": "mediacodec-handle-resolution-change",
          "value": "0"
        },
        {
          "category": 4,
          "name": "mediacodec-hevc",
          "value": "0"
        },
        {
          "category": 1,
          "name": "dns_cache_timeout",
          "value": "36000000"
        }
      ]
    },
    {
      "group": "硬解码",
      "options": [
        {
          "category": 4,
          "name": "opensles",
          "value": "0"
        },
        {
          "category": 4,
          "name": "overlay-format",
          "value": "842225234"
        },
        {
          "category": 4,
          "name": "framedrop",
          "value": "1"
        },
        {
          "category": 4,
          "name": "soundtouch",
          "value": "1"
        },
        {
          "category": 4,
          "name": "start-on-prepared",
          "value": "1"
        },
        {
          "category": 1,
          "name": "http-detect-range-support",
          "value": "0"
        },
        {
          "category": 1,
          "name": "fflags",
          "value": "fastseek"
        },
        {
          "category": 2,
          "name": "skip_loop_filter",
          "value": "48"
        },
        {
          "category": 4,
          "name": "reconnect",
          "value": "1"
        },
        {
          "category": 4,
          "name": "max-buffer-size",
          "value": "5242880"
        },
        {
          "category": 4,
          "name": "enable-accurate-seek",
          "value": "0"
        },
        {
          "category": 4,
          "name": "mediacodec",
          "value": "1"
        },
        {
          "category": 4,
          "name": "mediacodec-auto-rotate",
          "value": "1"
        },
        {
          "category": 4,
          "name": "mediacodec-handle-resolution-change",
          "value": "1"
        },
        {
          "category": 4,
          "name": "mediacodec-hevc",
          "value": "1"
        },
        {
          "category": 1,
          "name": "dns_cache_timeout",
          "value": "36000000"
        }
      ]
    }
  ],
  "ads": [
    "mimg.0c1q0l.cn",
    "www.googletagmanager.com",
    "www.google-analytics.com",
    "mc.usihnbcq.cn",
    "mg.g1mm3d.cn",
    "mscs.svaeuzh.cn",
    "cnzz.hhttm.top",
    "tp.vinuxhome.com",
    "cnzz.mmstat.com",
    "www.baihuillq.com",
    "s23.cnzz.com",
    "z3.cnzz.com",
    "c.cnzz.com",
    "stj.v1vo.top",
    "z12.cnzz.com",
    "img.mosflower.cn",
    "tips.gamevvip.com",
    "ehwe.yhdtns.com",
    "xdn.cqqc3.com",
    "www.jixunkyy.cn",
    "sp.chemacid.cn",
    "hm.baidu.com",
    "s9.cnzz.com",
    "z6.cnzz.com",
    "um.cavuc.com",
    "mav.mavuz.com",
    "wofwk.aoidf3.com",
    "z5.cnzz.com",
    "xc.hubeijieshikj.cn",
    "tj.tianwenhu.com",
    "xg.gars57.cn",
    "k.jinxiuzhilv.com",
    "cdn.bootcss.com",
    "ppl.xunzhuo123.com",
    "xomk.jiangjunmh.top",
    "img.xunzhuo123.com",
    "z1.cnzz.com",
    "s13.cnzz.com",
    "xg.huataisangao.cn",
    "z7.cnzz.com",
    "xg.huataisangao.cn",
    "z2.cnzz.com",
    "s96.cnzz.com",
    "q11.cnzz.com",
    "thy.dacedsfa.cn",
    "xg.whsbpw.cn",
    "s19.cnzz.com",
    "z8.cnzz.com",
    "s4.cnzz.com",
    "f5w.as12df.top",
    "ae01.alicdn.com",
    "www.92424.cn",
    "k.wudejia.com",
    "vivovip.mmszxc.top",
    "qiu.xixiqiu.com",
    "cdnjs.hnfenxun.com",
    "cms.qdwght.com"
  ],
  "spider": "https://litecucumber.coding.net/p/cat/d/config/git/raw/master/main_spider.txt;md5;954ac912d53598448fc0b4c86a5cd220"
}
